<?xml version="1.0" encoding="UTF-8" standalone="no"?>
<!DOCTYPE svg PUBLIC "-//W3C//DTD SVG 1.0//EN" "http://www.w3.org/TR/2001/REC-SVG-20010904/DTD/svg10.dtd">
<!-- Created with Inkscape (http://www.inkscape.org/) by Marsupilami -->
<svg
   xmlns:svg="http://www.w3.org/2000/svg"
   xmlns="http://www.w3.org/2000/svg"
   version="1.0"
   width="1024"
   height="135"
   viewBox="-0.90645 -0.90645 242.5904 32.0279"
   id="svg2657">
  <defs
     id="defs2659" />
  <path
     d="M 237.2875,20.76125 C 239.4325,20.76125 240.74125,21.9975 240.7775,23.41625 C 240.7775,27.925 227.43375,29.015 223.615,29.015 C 220.37875,29.015 218.925,28.61625 218.925,25.0525 C 218.925,24.6525 218.78,22.68875 218.125,22.68875 C 214.925,22.68875 212.3075,25.8525 209.39875,27.01625 C 208.5625,27.30625 207.25375,27.81625 206.38125,27.81625 C 205.6175,27.81625 205.32625,27.3425 205.32625,26.61625 C 205.32625,25.30625 206.5625,23.525 206.5625,23.0525 C 206.5625,22.83375 206.38125,22.68875 206.19875,22.68875 C 203.90875,22.68875 197.43625,27.81625 192.4175,27.81625 C 191.5825,27.81625 190.74625,27.37875 190.74625,26.43375 C 190.74625,25.23375 191,24.07 191,22.87125 C 191,22.6525 191,21.925 190.63625,21.925 C 187.3275,21.925 183.2925,25.96125 180.45625,27.525 C 179.72875,27.88875 178.965,28.17875 178.165,28.17875 C 177.62,28.17875 177.0375,27.81625 177.0375,27.23375 C 177.0375,26.5425 178.2375,24.47 178.565,23.78 C 175.40125,25.525 169.2575,28.28875 165.62125,28.28875 C 164.6025,28.28875 163.11125,27.88875 163.11125,26.6525 C 163.11125,26.14375 163.185,25.63375 163.2575,25.16125 C 160.96625,26.61625 156.42125,28.325 153.94875,28.325 C 151.695,28.325 149.695,28.1425 149.695,26.03375 C 149.695,24.21625 152.60375,21.7075 154.1675,20.58 C 156.1675,19.1625 160.1675,17.525 162.675,17.525 C 163.985,17.525 165.1475,17.67125 166.38375,18.14375 C 166.78375,18.28875 167.1475,18.47125 167.51125,18.61625 C 168.13,18.2525 169.62,17.67125 170.3475,17.67125 C 170.89375,17.67125 171.65625,18.035 171.65625,18.68875 C 171.65625,19.48875 168.13,23.5975 168.13,24.76125 C 168.13,25.38 168.56625,25.525 169.11125,25.525 C 170.92875,25.525 177.22,22.61625 178.67375,21.7075 C 179.58375,21.16125 181.40125,19.525 182.01875,18.54375 C 184.20125,14.98125 186.3825,11.38125 187.94625,7.4900002 C 188.055,7.1987502 188.2,6.7262502 188.49125,6.5812502 C 188.70875,6.4725002 189.29125,6.3637502 189.54625,6.3637502 C 189.91,6.3637502 191.43625,6.7262502 191.655,6.9812502 C 191.94625,7.3450002 191.90875,7.7087502 191.90875,8.1812502 C 191.90875,10.29 185.11,20.035 183.6925,22.61625 C 184.60125,22.36125 186.1275,21.41625 186.96375,20.9075 C 189.03625,19.67125 191.4,18.47125 193.90875,18.47125 C 194.89,18.47125 195.545,19.4525 195.545,20.39875 C 195.545,21.4525 195.43625,22.5075 195.43625,23.56125 C 195.43625,23.88875 195.76375,24.5075 196.16375,24.5075 C 198.8175,24.5075 202.89,21.925 205.18125,20.54375 C 205.98125,20.07125 206.8175,19.48875 207.68875,19.0525 C 208.52625,18.6525 209.69,18.2525 210.59875,18.2525 C 211.54375,18.2525 211.9075,18.61625 211.9075,19.5625 C 211.9075,20.6525 211.14375,21.74375 211.14375,22.7975 C 211.14375,23.0525 211.25375,23.1975 211.5075,23.1975 C 212.635,23.1975 217.76125,18.87125 221.3975,18.87125 C 222.3425,18.87125 223.03375,19.38 223.03375,20.36125 C 223.03375,21.235 222.96125,22.1075 222.96125,22.98 C 222.96125,23.67 222.96125,24.725 223.25125,25.41625 C 223.90625,26.90625 227.43375,26.68875 228.7425,26.68875 C 233.215,26.68875 238.19625,26.5425 238.19625,23.34375 C 238.19625,22.68875 236.66875,21.81625 236.66875,21.41625 C 236.66875,21.08875 236.7775,20.76125 237.2875,20.76125 z M 49.5225,19.38 C 47.41375,19.38 42.65,21.74375 42.65,23.88875 C 44.3225,23.88875 50.94,21.88875 50.94,20.28875 C 50.94,19.5625 50.03125,19.38 49.5225,19.38 z M 83.70125,19.27125 C 81.5925,19.27125 77.41125,21.925 77.41125,23.88875 C 78.75625,23.525 85.11875,21.5975 85.11875,19.99875 C 85.11875,19.235 84.17375,19.27125 83.70125,19.27125 z M 156.85875,25.74375 C 158.74875,25.74375 162.53,23.81625 163.87625,22.68875 C 164.42125,22.2525 165.6575,21.34375 165.6575,20.54375 C 165.6575,19.92625 163.91125,19.67125 162.56625,19.67125 C 160.74875,19.67125 155.44,22.68875 155.44,24.90625 C 155.44,25.7075 156.24,25.74375 156.85875,25.74375 z M 65.9575,15.19875 C 57.885,15.41625 49.85,15.59875 41.7775,15.59875 C 39.59625,15.59875 34.5425,15.635 32.215,15.5625 C 30.07,18.68875 25.125,24.7975 22.14375,26.94375 C 20.6525,27.9975 19.16125,28.43375 17.34375,28.43375 C 16.61625,28.43375 15.01625,27.81625 15.01625,27.01625 C 15.01625,26.6525 16.6525,25.5975 16.98,25.38 C 20.28875,22.83375 22.5425,20.47125 26.28875,15.59875 C 22.83375,15.41625 0,15.99875 0,11.85375 C 0,9.5987502 10.69,5.6362502 13.635,4.7637502 C 21.38,2.5087502 31.37875,1.5258789e-07 43.99625,1.5258789e-07 C 48.35875,1.5258789e-07 55.34,1.0912502 55.34,3.3450002 C 55.34,7.2362502 45.1225,11.62 41.59625,11.62 C 40.8325,11.62 38.32375,11.2875 38.32375,10.125 C 38.32375,9.8700002 39.16,9.8700002 39.85125,9.7975002 C 40.54125,9.7250002 42.86875,9.4337502 43.05,9.3612502 C 44.7225,8.7425002 48.65,7.4175002 48.65,4.8000002 C 48.65,3.2725002 44.94125,2.2187502 39.74125,2.2187502 C 31.45125,2.2187502 20.61625,4.8362502 15.235,6.3637502 C 13.05375,6.9812502 6,9.7087502 6.03625,10.87125 C 6.03625,13.67125 26.615,13.05375 28.36125,13.05375 C 30.3975,10.4725 32.97875,7.0900002 32.97875,6.1450002 C 32.97875,5.8537502 33.415,5.8175002 33.70625,5.8175002 C 34.615,5.8175002 36.6875,7.0175002 36.86875,7.6000002 C 36.94125,7.8537502 36.97875,8.1087502 36.97875,8.3625002 C 36.97875,9.1987502 34.76,12.1075 33.92375,13.19875 C 37.415,13.27125 43.74125,13.235 47.2325,13.235 C 54.03125,13.235 60.8675,13.1625 67.66625,13.0175 C 68.39375,12.1075 69.88375,10.035 70.28375,8.9812502 C 70.43,8.6175002 70.61125,7.7087502 70.83,7.4537502 C 71.15625,7.0900002 72.03,7.1262502 72.5025,7.1262502 C 73.62875,7.1262502 74.68375,7.2362502 74.68375,8.6537502 C 74.68375,9.5262502 73.0475,12.145 72.5025,12.94375 C 80.61,13.0175 88.755,13.0175 96.86375,13.0175 C 108.7175,13.0175 120.57,12.98 132.42375,12.98 C 133.87875,10.72625 136.06,6.6900002 136.82375,4.2175002 C 136.9325,3.8537502 137.115,2.8725002 137.36875,2.6537502 C 137.62375,2.3637502 138.49625,2.3637502 138.86,2.3637502 C 139.55,2.3637502 141.55,2.7275002 141.55,3.6000002 C 141.55,6.2537502 139.22375,10.2175 137.69625,12.9075 C 140.605,12.9075 143.4775,12.835 146.35,12.835 C 147.15,11.4175 149.7675,6.9450002 149.7675,5.4175002 C 149.7675,4.8362502 150.8225,4.7262502 151.25875,4.7262502 C 151.98625,4.7262502 154.42125,5.1275002 154.42125,6.1087502 C 154.42125,7.4537502 152.20375,11.38125 151.58625,12.79875 C 152.9675,12.9075 154.20375,12.9075 155.585,12.9075 C 156.20375,12.9075 160.2025,12.65375 160.2025,13.59875 C 160.2025,13.9625 159.54875,14.25375 159.2575,14.3625 C 158.67625,14.54375 154.27625,14.72625 153.07625,14.72625 C 152.53125,14.72625 151.44,14.835 150.60375,14.9075 C 149.005,17.9625 142.71375,28.47 140.06,29.7425 C 139.4775,29.9975 138.3875,30.215 137.76875,30.215 C 137.4775,30.215 136.1325,30.17875 136.1325,29.70625 C 136.1325,29.27 136.3875,28.90625 136.64125,28.57875 C 139.7325,24.14375 142.64125,19.88875 145.2225,15.09 C 144.53125,15.09 143.8775,15.09 143.18625,15.09 C 140.96875,15.09 138.71375,15.09 136.46,15.235 C 134.97,17.59875 129.37,26.21625 127.4425,27.3425 C 126.35125,27.96125 125.2975,27.9975 124.06125,27.9975 C 123.55125,27.9975 122.78875,27.96125 122.78875,27.23375 C 122.78875,27.0525 123.55125,26.14375 123.6975,25.925 C 126.46,22.47125 128.97,19.0525 131.1875,15.235 C 111.04375,15.235 90.9,15.27125 70.75625,15.27125 C 69.1575,17.34375 67.59375,19.1625 66.06625,21.27125 C 65.44875,22.14375 64.39375,23.925 64.39375,24.98 C 64.39375,26.14375 65.26625,26.21625 66.13875,26.21625 C 68.21125,26.21625 69.73875,25.67 71.73875,25.23375 C 72.86625,20.14375 79.265,17.1625 84.02875,17.1625 C 85.155,17.1625 88.90125,17.5625 88.90125,19.19875 C 88.90125,22.43375 80.90125,24.83375 77.52,25.7075 C 77.55625,26.50625 78.61125,26.61625 79.22875,26.61625 C 79.62875,26.61625 80.065,26.58 80.465,26.58 C 83.12,26.6525 89.155,24.1075 93.7,21.74375 C 95.19125,20.98 97.444996,19.4525 98.972496,18.79875 C 99.481246,18.58 99.953746,18.39875 100.5,18.39875 C 101.1175,18.39875 102.1,18.79875 102.1,19.4525 C 102.1,20.1075 101.48125,20.725 101.33625,21.525 C 104.82625,18.98 108.02625,16.98 112.49875,16.98 C 114.28,16.98 116.09875,18.58 116.09875,20.39875 C 116.09875,20.79875 115.91625,21.41625 115.37125,21.41625 C 114.78875,21.41625 113.69875,20.87125 113.11625,20.61625 C 112.17125,20.2525 111.2625,20.035 110.24375,20.035 C 106.3175,20.035 102.3175,22.68875 99.699996,25.4525 C 99.153746,25.9975 98.644996,26.58 98.172496,27.1975 C 97.991246,27.41625 97.844996,27.67 97.663746,27.8525 C 96.9,28.57875 96.06375,28.7975 95.045,28.7975 C 94.53625,28.7975 93.26375,28.7975 93.26375,27.9975 C 93.26375,26.5425 95.44625,25.23375 96.79125,22.2525 C 88.97375,26.14375 83.91875,28.7975 77.265,28.7975 C 75.665,28.76125 73.55625,28.325 72.53875,26.97875 C 69.33875,27.925 65.23,28.6525 61.885,28.6525 C 61.04875,28.6525 58.97625,27.88875 58.97625,26.87 C 58.97625,26.07 59.0125,25.30625 59.30375,24.58 C 54.17625,27.525 48.795,28.83375 42.905,28.83375 C 40.905,28.83375 38.1775,28.03375 37.415,25.96125 C 36.5425,25.925 33.6325,25.56125 33.6325,24.36125 C 33.6325,23.96125 34.07,23.925 34.32375,23.925 C 35.19625,23.925 36.0325,24.1075 36.905,24.1075 C 37.12375,24.1075 37.34125,24.1075 37.56,24.07 C 38.97875,19.635 45.2325,17.235 49.5225,17.235 C 50.795,17.235 54.2125,17.49 54.2125,19.27125 C 54.2125,23.23375 45.9225,25.30625 42.7225,25.56125 C 42.8325,26.58 44.46875,26.6525 45.2325,26.6525 C 49.81375,26.6525 54.6125,24.83375 58.6125,22.68875 C 59.485,22.21625 60.3575,21.67125 61.12125,21.0525 C 62.0675,20.2525 65.26625,16.3625 65.9575,15.19875"
     id="path2614"
     style="fill:#2b0000;fill-opacity:1;fill-rule:nonzero;stroke:none" />
</svg>
<!-- version: 20080810, original size: 240.7775 30.215, border: 3% -->
